…
    ## Warning: There was 1 warning in `mutate()`.
    ## ℹ In argument: `release_date = mdy(release_date)`.
    ## Caused by warning:
    ## !  4418 failed to parse.

``` r
print(genresteamgames)
```

    ## # A tibble: 40,833 × 5
    ##       id name                                    genre genre_number release_date
    ##    <dbl> <chr>                                   <chr>        <dbl> <date>      
    ##  1     1 DOOM                                    Acti…            1 2016-05-12  
    ##  2     2 PLAYERUNKNOWN'S BATTLEGROUNDS           Acti…            3 2017-12-21  
    ##  3     3 BATTLETECH                              Acti…            3 2018-04-24  
    ##  4     4 DayZ                                    Acti…            3 2018-12-13  
    ##  5     5 EVE Online                              Acti…            5 2003-05-06  
    ##  6     6 Grand Theft Auto V: Premium Online Edi… Acti…            2 NA          
    ##  7     7 Devil May Cry 5                         Acti…            1 2019-03-07  
    ##  8     8 Human: Fall Flat                        Adve…            2 2016-07-22  
    ##  9     9 They Are Billions                       Stra…            2 2017-12-12  
    ## 10    10 Warhammer: Chaosbane                    Acti…            3 2019-05-31  
    ## # ℹ 40,823 more rows
…
In this task, we will use a str_count function to count the number of
languages each game has.

``` r
library(stringr)

languagesteamgames<- steam_games %>% 
  mutate(language_number = str_count(steam_games$languages, ",") +1 ) %>%
  select(id, name, languages, language_number, mature_content )%>% na.omit()

print(languagesteamgames)
```

    ## # A tibble: 5,687 × 5
    ##       id name                           languages language_number mature_content
    ##    <dbl> <chr>                          <chr>               <dbl> <chr>         
    ##  1     2 PLAYERUNKNOWN'S BATTLEGROUNDS  English,…              17 Mature Conten…
    ##  2     6 Grand Theft Auto V: Premium O… English,…              12 NaN           
    ##  3     7 Devil May Cry 5                English,…              12 Mature Conten…
    ##  4    10 Warhammer: Chaosbane           English,…              13 Mature Conten…
    ##  5    13 TERA                           English                 1 Mature Conten…
    ##  6    16 Hearts of Iron IV: Mobilizati… English,…               7 NaN           
    ##  7    26 Portal Bundle                  English,…              22 NaN           
    ##  8    32 Hellblade: Senua's Sacrifice   English,…              20 Mature Conten…
    ##  9    34 Yakuza 0                       English,…               2 Mature Conten…
    ## 10    38 Life is Strange 2              English,…               8 Mature Conten…
    ## # ℹ 5,677 more rows
…
The 8 variables I’m looking at are *id, types, name, release_date,
developer, original_price, discount_price, and achievements*. Based on
the definition, this data is tidy since each column is a variable, not
storing any values/information. The id, types, name, and developer
column all correlate to assigning single categorical values for a single
game. The release_date, original_price and discount_price columns also
assigns numerical variables for each games.

``` r
steamgamestidyfiltered <- steam_games %>% select(id, types, name, release_date, developer, original_price, discount_price, achievements)

print(steamgamestidyfiltered)
```

    ## # A tibble: 40,833 × 8
    ##       id types  name        release_date developer original_price discount_price
    ##    <dbl> <chr>  <chr>       <chr>        <chr>              <dbl>          <dbl>
    ##  1     1 app    DOOM        May 12, 2016 id Softw…           20.0           15.0
    ##  2     2 app    PLAYERUNKN… Dec 21, 2017 PUBG Cor…           30.0           NA  
    ##  3     3 app    BATTLETECH  Apr 24, 2018 Harebrai…           40.0           NA  
    ##  4     4 app    DayZ        Dec 13, 2018 Bohemia …           45.0           NA  
    ##  5     5 app    EVE Online  May 6, 2003  CCP                  0             NA  
    ##  6     6 bundle Grand Thef… NaN          Rockstar…           NA             35.2
    ##  7     7 app    Devil May … Mar 7, 2019  CAPCOM C…           60.0           70.4
    ##  8     8 app    Human: Fal… Jul 22, 2016 No Brake…           15.0           17.6
    ##  9     9 app    They Are B… Dec 12, 2017 Numantia…           30.0           NA  
    ## 10    10 app    Warhammer:… May 31, 2019 Eko Soft…           50.0           NA  
    ## # ℹ 40,823 more rows
    ## # ℹ 1 more variable: achievements <dbl>
…
